<?xml version="1.0" encoding="UTF-8" standalone="no"?>
<svg xmlns:dc="http://purl.org/dc/elements/1.1/" xmlns:cc="http://creativecommons.org/ns#" xmlns:rdf="http://www.w3.org/1999/02/22-rdf-syntax-ns#" xmlns:svg="http://www.w3.org/2000/svg" xmlns="http://www.w3.org/2000/svg" version="1.1" id="svg2" viewBox="0 0 1080 175" height="175" width="1080">
  <defs id="defs4">
    <clipPath clipPathUnits="userSpaceOnUse" id="clipPath3350">
      <path d="M 0,144 792,144 792,0 0,0 0,144 Z" id="path3352"/>
    </clipPath>
  </defs>
  <metadata id="metadata7">
    <rdf:RDF>
      <cc:Work rdf:about="">
        <dc:format>image/svg+xml</dc:format>
        <dc:type rdf:resource="http://purl.org/dc/dcmitype/StillImage"/>
        <dc:title/>
      </cc:Work>
    </rdf:RDF>
  </metadata>
  <g transform="translate(0,-877.36216)" id="layer1">
    <g transform="matrix(1.5052561,0,0,-1.5052561,-65.794594,1077.9719)" id="g3348" clip-path="url(#clipPath3350)">
      <g id="g3354" transform="translate(236.8359,36.2793)">
        <path d="m 0,0 c -1.125,1.176 -2.031,2.478 -2.031,8.036 l 0,58.862 c 0,5.559 0.906,6.858 2.031,8.038 2.003,2.096 4.037,2.288 4.277,2.953 0.294,0.821 -0.589,1.178 -2.241,1.051 -2.856,-0.22 -6.286,-0.507 -10.941,-0.508 -4.654,0.001 -8.083,0.288 -10.939,0.508 -1.653,0.127 -2.535,-0.23 -2.241,-1.051 0.238,-0.665 2.274,-0.856 4.275,-2.953 1.747,-1.834 2.06,-4.807 2.06,-10.031 l -0.005,-54.873 c 0,-7.267 -0.807,-8.726 -2.055,-10.032 -2.002,-2.1 -4.037,-2.291 -4.275,-2.957 -0.294,-0.818 0.588,-1.177 2.241,-1.048 2.856,0.219 6.285,0.506 10.939,0.506 4.655,0 8.085,-0.287 10.941,-0.506 1.652,-0.129 2.535,0.23 2.241,1.048 C 4.037,-2.291 2.003,-2.1 0,0" style="fill:#000000;fill-opacity:1;fill-rule:nonzero;stroke:none" id="path3356"/>
      </g>
      <g id="g3358" transform="translate(301.29,47.9658)">
        <path d="m 0,0 c -0.665,-0.238 -0.921,-2.204 -2.955,-4.278 -2.395,-2.436 -8.201,-5.071 -19.388,-5.071 -4.482,0 -7.76,1.51 -7.76,6.665 l 0,57.864 c 0,5.586 0.905,6.887 2.032,8.069 2.004,2.097 4.038,2.288 4.276,2.954 0.295,0.821 -0.588,1.178 -2.242,1.05 -2.855,-0.219 -6.285,-0.507 -10.939,-0.508 -4.653,10e-4 -8.085,0.289 -10.94,0.508 -1.652,0.128 -2.535,-0.229 -2.24,-1.05 0.238,-0.666 2.194,-0.935 4.275,-2.954 1.709,-1.659 2.061,-4.775 2.061,-10.031 l -0.005,-54.876 c 0,-7.268 -0.808,-8.727 -2.056,-10.035 -2.003,-2.095 -4.037,-2.285 -4.275,-2.953 -0.295,-0.82 0.587,-1.162 2.24,-1.049 6.388,0.418 16.126,0.679 19.083,0.629 7.353,-0.116 17.442,-0.722 19.295,-0.821 2.086,-0.112 5.525,-0.224 6.653,0.311 0.923,0.437 1.354,1.552 1.579,2.705 1.192,6.094 2.136,7.77 2.357,10.629 C 1.178,-0.589 0.82,0.293 0,0" style="fill:#000000;fill-opacity:1;fill-rule:nonzero;stroke:none" id="path3360"/>
      </g>
      <g id="g3362" transform="translate(205.3828,115.1958)">
        <path d="m 0,0 c -2.849,-0.22 -4.751,-0.507 -7.413,-0.508 -2.663,0.001 -4.564,0.288 -7.414,0.508 -1.652,0.127 -2.535,-0.23 -2.241,-1.051 0.238,-0.666 2.498,-0.66 4.437,-2.662 1.22,-1.259 1.894,-2.949 1.893,-9.661 l -0.013,-42.569 c -0.005,-15.296 -11.749,-21.165 -22.158,-21.165 -10.411,0 -18.975,6.965 -18.979,18.849 l -0.013,46.174 c -10e-4,5.587 0.906,6.89 2.033,8.07 2.002,2.098 4.037,2.288 4.276,2.955 0.295,0.819 -0.589,1.177 -2.242,1.05 -2.855,-0.22 -6.285,-0.507 -10.939,-0.508 -4.653,0.001 -8.084,0.288 -10.939,0.508 -1.653,0.127 -2.537,-0.231 -2.243,-1.05 0.24,-0.667 2.273,-0.858 4.277,-2.955 1.829,-1.916 2.062,-5.119 2.061,-10.031 l -0.013,-41.602 c -0.006,-19.504 15.803,-29.042 30.188,-29.042 23.599,0 31.338,15.878 31.341,28.76 l 0.011,41.89 c 10e-4,7.269 0.636,9.028 1.894,10.327 1.939,2.002 4.198,1.996 4.438,2.662 C 2.535,-0.23 1.652,0.127 0,0" style="fill:#000000;fill-opacity:1;fill-rule:nonzero;stroke:none" id="path3364"/>
      </g>
      <g id="g3366" transform="translate(129.7471,80.6733)">
        <path d="m 0,0 c -2.854,-0.219 -6.285,-0.51 -10.939,-0.51 -4.654,0 -8.084,0.291 -10.94,0.51 -1.652,0.128 -2.535,-0.23 -2.24,-1.048 0.238,-0.668 2.272,-0.858 4.275,-2.957 1.707,-1.789 2.054,-4.868 2.054,-9.912 l 0.006,-20.842 c 10e-4,-2.804 0.605,-3.62 3.519,-5.639 3.294,-2.276 6.413,-4.795 8.242,-7.457 0.345,-0.501 0.873,-0.859 1.311,-0.72 0.478,0.152 0.646,1.854 0.646,1.854 l 10e-4,34.68 c 0,5.563 0.905,6.857 2.031,8.036 2.003,2.099 4.038,2.289 4.276,2.957 C 2.536,-0.23 1.654,0.128 0,0" style="fill:#000000;fill-opacity:1;fill-rule:nonzero;stroke:none" id="path3368"/>
      </g>
      <g id="g3370" transform="translate(92.3789,119.7803)">
        <path d="m 0,0 c 11.002,0 16.262,-2.639 21.583,-6.951 3.761,-3.05 6.382,-7.246 7.915,-10.215 1.609,-3.369 1.352,-4.345 2.266,-4.743 0.508,-0.223 1.495,0.244 1.495,2.245 0.072,3.204 0.042,7.386 0.01,14.287 -0.01,2.226 -1.428,3.049 -8.435,5.971 C 21.609,1.938 12.098,5.595 0,5.595 c -28.478,0 -48.669,-21.194 -48.669,-47.316 0,-23.35 16.035,-42.324 32.528,-47.186 0.552,-0.161 1.258,-0.367 1.642,-0.431 0.854,-0.141 1.01,0.624 1.01,2.593 0,0.722 -0.148,1.042 -1.178,1.968 -10.338,9.312 -17.513,26.152 -17.513,42.397 C -32.18,-18.413 -18.294,0 0,0" style="fill:#000000;fill-opacity:1;fill-rule:nonzero;stroke:none" id="path3372"/>
      </g>
      <g id="g3374" transform="translate(433.709,60.9746)">
        <path d="m 0,0 c -0.688,0.311 -1.649,-0.414 -2.503,-1.774 l -5.043,-8.061 -25.116,60.007 c -1.91,5.344 -1.811,6.858 -1.276,8.542 0.368,1.171 2.312,2.366 2.548,3.03 0.293,0.82 -0.587,1.178 -2.24,1.051 -2.855,-0.221 -6.285,-0.508 -10.939,-0.509 -4.653,10e-4 -8.083,0.288 -10.939,0.509 -1.653,0.127 -2.537,-0.231 -2.243,-1.051 0.241,-0.664 2.275,-0.857 4.278,-2.954 1.189,-1.25 3.143,-3.436 6.101,-9.198 0.518,-1.106 1.012,-2.228 1.491,-3.347 l 1.176,-2.807 c 0.234,-0.565 0.467,-1.129 0.7,-1.686 0.026,-0.065 0.056,-0.126 0.082,-0.181 l 30.797,-73.458 c 0.433,-1.032 1.032,-1.885 1.688,-1.885 0.476,0 1.174,0.611 1.44,1.379 l 9.79,28.328 C 0.448,-2.168 0.859,-0.393 0,0 m 59.687,62.795 c -2.173,-0.167 -4.678,-0.375 -7.797,-0.463 -3.539,0.037 -3.675,0.262 -6.283,0.463 -1.654,0.127 -2.535,-0.231 -2.24,-1.051 0.239,-0.664 2.181,-1.859 2.552,-3.03 0.48,-1.531 0.607,-2.922 -0.803,-7.167 L 23.712,-8.501 -0.883,50.391 c -1.829,5.164 -1.726,6.661 -1.202,8.323 0.371,1.171 2.314,2.366 2.554,3.03 0.291,0.82 -0.59,1.178 -2.242,1.051 -2.858,-0.221 -6.287,-0.508 -10.941,-0.509 -4.652,10e-4 -8.085,0.288 -10.937,0.509 -1.654,0.127 -2.537,-0.231 -2.246,-1.051 0.244,-0.664 2.276,-0.857 4.278,-2.954 1.211,-1.269 3.21,-3.506 6.249,-9.486 0.477,-1.022 0.932,-2.056 1.373,-3.091 l 1.144,-2.729 c 0.241,-0.582 0.479,-1.161 0.716,-1.732 0.03,-0.065 0.056,-0.126 0.087,-0.182 l 30.892,-73.694 c 0.74,-1.714 2.051,-2.828 2.953,-0.34 l 29.315,81.215 0.004,-0.014 c 2.723,7.169 4.973,8.821 6.115,9.966 2.049,2.053 4.458,2.377 4.698,3.041 0.295,0.82 -0.591,1.178 -2.24,1.051" style="fill:#000000;fill-opacity:1;fill-rule:nonzero;stroke:none" id="path3376"/>
      </g>
      <g id="g3378" transform="translate(337.1738,115.7979)">
        <path d="m 0,0 c -11.436,0 -12.956,-1.056 -22.007,-1.065 -3.581,0.071 -6.381,0.302 -8.773,0.486 -1.654,0.128 -2.534,-0.229 -2.24,-1.05 0.237,-0.666 2.273,-0.856 4.274,-2.954 1.688,-1.771 2.06,-4.552 2.06,-10.031 0,0 -0.001,-67.684 0.002,-67.695 0,-0.917 0.174,-1.681 0.645,-1.849 0.461,-0.163 1.057,0.249 1.454,0.71 0.587,0.685 1.328,1.619 2.615,2.935 1.706,1.744 2.381,2.26 5.485,4.534 2.952,2.16 3.518,2.916 3.518,5.923 l 0,55.776 c 0,1.452 0.114,4.53 0.231,5.476 2.957,1.975 6.944,2.993 12.736,2.993 17.139,0 31.033,-12.689 31.033,-36.656 0,-16.182 -6.065,-30.463 -15.722,-36.533 l 0.013,-0.003 c -1.067,-0.742 -1.351,-1.255 -1.351,-2.119 0,-1.972 0.086,-2.57 0.918,-2.339 0.19,0.053 0.407,0.112 0.631,0.178 18.357,5.676 31.52,20.838 31.52,41.494 C 47.042,-14.813 26.999,0 0,0" style="fill:#000000;fill-opacity:1;fill-rule:nonzero;stroke:none" id="path3380"/>
      </g>
      <g id="g3382" transform="translate(734.4766,52.3379)">
        <path d="m 0,0 c -0.665,-0.238 -2.015,-2.327 -4.213,-4.3 -2.709,-2.429 -8.676,-4.792 -17.998,-4.792 l -23.621,0 c 17.646,23.817 41.061,41.252 41.061,58.298 0,15.511 -8.503,24.273 -28.459,24.273 -6.242,0 -16.238,-2.81 -25.202,-7.965 -1.371,-0.788 -1.737,-1.562 -1.736,-2.686 l 0.021,-13.906 c 10e-4,-2.603 0.978,-2.849 1.486,-2.627 0.614,0.268 0.69,0.828 1.159,2.199 0.795,2.31 3.875,8.71 9.969,14.036 4.926,4.308 9.421,5.131 13.304,5.131 11.566,0 15.094,-8.382 15.094,-17.198 0,-13.562 -11.211,-26.894 -20.343,-39.327 -12.471,-16.988 -20.393,-27.276 -23.404,-31.22 -0.31,-0.406 -0.442,-0.824 -0.293,-1.083 0.232,-0.391 0.847,-0.369 1.811,-0.316 5.546,0.305 18.642,1.012 28.343,0.813 7.353,-0.151 18.258,-0.75 20.112,-0.846 2.087,-0.11 5.524,-0.224 6.652,0.307 0.923,0.443 1.735,2.437 2.109,3.554 2.481,7.446 4.716,11.115 5.201,15.413 C 1.238,-0.597 0.819,0.295 0,0" style="fill:#000000;fill-opacity:1;fill-rule:nonzero;stroke:none" id="path3384"/>
      </g>
      <g id="g3386" transform="translate(640.7227,80.9844)">
        <path d="m 0,0 c -13.247,9.542 -16.582,13.603 -16.582,19.142 0,4.034 3.21,9.076 11.32,10.061 12.195,1.483 17.602,-6.461 18.825,-8.546 2.295,-3.904 1.691,-7.666 2.697,-8.518 0.421,-0.36 1.425,0.153 1.463,2.194 0.063,3.531 0.042,12.555 0.042,14.339 0,2.205 -1.787,2.852 -5.826,4.141 -2.887,0.922 -9.863,2.529 -16.205,2.529 -11.826,0 -22.805,-4.934 -24.937,-16.427 -1.525,-8.202 0.457,-16.93 16.447,-28.792 13.884,-10.301 19.223,-14.693 19.223,-21.634 0,-7.045 -5.563,-12.778 -15.846,-12.778 -1.244,0 -2.454,0.053 -3.633,0.155 -0.774,0.074 -1.046,-0.235 -0.812,-0.724 0.24,-0.511 1.246,-2.314 1.465,-2.679 0.171,-0.283 0.62,-0.799 1.224,-0.89 1.767,-0.269 3.689,-0.263 5.741,-0.263 11.446,0 26.272,6.342 26.272,20.914 C 20.878,-18.721 16.656,-11.994 0,0" style="fill:#000000;fill-opacity:1;fill-rule:nonzero;stroke:none" id="path3388"/>
      </g>
      <g id="g3390" transform="translate(620.0801,19.4463)">
        <path d="m 0,0 0.002,0 -0.027,0.042 c -0.004,0.007 -0.004,0.013 -0.011,0.021 -0.002,0.004 -0.008,0.011 -0.01,0.016 l -27.681,45.482 c 6.707,4.795 12.132,12.088 12.132,22.92 0,18.317 -12.76,27.509 -34.753,27.509 -10.151,0 -10.965,-0.613 -17.34,-0.756 -4.555,0.008 -7.933,0.291 -10.747,0.507 -1.655,0.128 -2.539,-0.23 -2.244,-1.05 0.241,-0.666 2.271,-0.857 4.277,-2.955 1.726,-1.81 2.077,-5.006 2.077,-10.012 l 0,-54.865 -0.009,0.006 c 0,-3.036 -0.249,-5.593 -0.686,-7.231 -0.67,-2.523 -2.839,-2.746 -4.518,-1.081 -1.725,1.712 -2.329,3.588 -4.465,8.049 l -29.074,69.352 c -0.731,1.211 -1.7,1.792 -2.618,-0.299 l -24.866,-68.714 c -2.609,-7.208 -5.458,-9.222 -6.596,-10.365 -2.051,-2.054 -3.875,-1.696 -4.215,-2.639 -0.295,-0.822 0.589,-1.182 2.24,-1.053 2.174,0.17 4.678,0.374 7.797,0.465 3.539,-0.035 3.675,-0.261 6.282,-0.465 1.655,-0.129 2.535,0.231 2.24,1.053 -0.24,0.665 -2.18,1.858 -2.551,3.03 -0.463,1.473 -0.718,2.857 0.653,6.709 l 17.071,47.924 14.812,-35.466 -15.663,-0.238 c -1.357,-0.022 -1.618,-0.506 -2.043,-1.671 -0.715,-1.95 -0.823,-2.503 -0.554,-2.863 0.34,-0.454 1.809,-0.422 2.563,-0.422 l 17.883,-0.036 2.873,-6.888 c 1.44,-4.301 1.313,-5.697 0.829,-7.238 -0.37,-1.17 -2.313,-2.365 -2.55,-3.03 -0.295,-0.817 0.586,-1.176 2.24,-1.051 2.855,0.223 6.286,0.507 10.937,0.509 3.395,-0.002 6.917,-0.235 9.244,-0.195 4.359,0.074 7.334,0.323 9.59,0.323 4.653,0 8.082,-0.291 10.935,-0.506 1.652,-0.129 2.537,0.23 2.242,1.048 -0.239,0.666 -2.273,0.857 -4.275,2.957 -1.122,1.172 -1.886,2.47 -2.028,7.969 l -0.002,58.553 c 0,1.21 0.044,2.986 0.339,5.509 2.436,0.802 5.212,1.074 9.414,1.074 10.34,0 19.643,-6.486 19.643,-21.457 0,-14.038 -5.671,-23.054 -18.209,-27.407 -1.223,-0.421 -1.457,-0.577 -1.54,-1.49 -0.134,-1.508 -0.084,-2.366 1.82,-2.193 2.118,0.254 5,0.814 8.194,1.797 2.902,-3.14 8.732,-9.428 17.13,-18.597 6.947,-7.588 21.161,-21.459 21.161,-21.459 1.411,-1.296 2.411,-1.822 2.917,-1.446 C 0.712,-1.983 0.712,-1.177 0,0" style="fill:#000000;fill-opacity:1;fill-rule:nonzero;stroke:none" id="path3392"/>
      </g>
      <g id="g3394" transform="translate(747.5518,106.0425)">
        <path d="m 0,0 3.265,0 c 0.853,0 1.484,0.212 1.9,0.637 0.417,0.427 0.623,0.952 0.623,1.575 0,0.646 -0.222,1.135 -0.661,1.47 C 4.688,4.013 4.13,4.181 3.463,4.181 L 0,4.181 0,0 Z m 7.933,-6.829 -2.054,0 -2.418,5.359 -3.461,0 0,-5.359 -1.852,0 0,12.571 5.315,0 C 4.894,5.742 5.97,5.373 6.682,4.638 7.395,3.9 7.749,3.081 7.749,2.182 7.749,1.516 7.554,0.876 7.165,0.263 6.771,-0.352 6.161,-0.786 5.329,-1.042 l 2.604,-5.787 z m 4.179,6.293 c 0,2.557 -0.908,4.741 -2.723,6.557 -1.816,1.816 -3.998,2.722 -6.555,2.722 -2.546,0 -4.729,-0.91 -6.552,-2.731 -1.817,-1.819 -2.728,-4.002 -2.728,-6.548 0,-2.557 0.906,-4.741 2.715,-6.557 1.809,-1.816 3.998,-2.721 6.565,-2.721 2.544,0 4.727,0.908 6.548,2.729 1.82,1.819 2.73,4.003 2.73,6.549 m 1.532,0 c 0,-2.97 -1.06,-5.515 -3.177,-7.633 -2.118,-2.119 -4.662,-3.178 -7.633,-3.178 -2.971,0 -5.517,1.059 -7.635,3.178 -2.115,2.118 -3.177,4.663 -3.177,7.633 0,2.96 1.062,5.502 3.177,7.626 2.118,2.123 4.664,3.184 7.635,3.184 2.971,0 5.515,-1.061 7.633,-3.184 2.117,-2.124 3.177,-4.666 3.177,-7.626" style="fill:#000000;fill-opacity:1;fill-rule:nonzero;stroke:none" id="path3396"/>
      </g>
    </g>
  </g>
</svg>