<svg width="512" height="512" viewBox="0 0 512 512" fill="none" xmlns="http://www.w3.org/2000/svg">
<path d="M454.318 25.3614C445.435 43.128 430.898 56.0492 405.863 65.74C371.945 79.4688 371.138 80.2763 398.595 75.4309C428.476 71.393 471.277 32.6295 471.277 10.8251C471.277 -6.13397 468.854 -4.51882 454.318 25.3614Z" />
<path d="M456.742 74.6234C444.628 106.926 423.631 116.617 338.028 128.731C268.577 138.422 241.927 153.766 248.388 181.223C254.041 202.22 250.811 204.643 229.814 192.529C195.896 174.762 204.779 132.769 247.58 107.734C261.309 99.6582 294.42 89.9673 321.069 87.5446L370.331 81.8915L328.338 80.2764C299.265 79.4688 274.23 85.1218 243.542 99.6582C220.123 110.964 191.858 119.847 180.552 119.847C145.826 119.847 123.214 129.538 127.252 140.844C129.675 147.305 126.444 152.15 120.791 152.15C114.331 152.15 107.87 148.113 106.255 142.46C103.832 136.807 97.3717 135.191 86.8732 140.037C78.7975 143.267 69.1066 145.69 65.8763 145.69C52.9552 142.46 39.2264 198.99 40.034 249.059C40.8416 327.394 51.34 344.353 135.328 412.997C170.053 441.262 185.397 449.337 192.665 442.877C200.741 436.416 212.855 440.454 239.505 459.028C259.694 471.949 278.268 483.255 282.306 483.255C285.536 483.255 294.42 488.101 300.88 494.561C308.148 500.214 325.107 507.483 339.644 509.905C360.641 513.943 364.678 512.328 360.641 503.445C358.218 496.177 361.448 491.331 369.524 491.331C385.675 491.331 385.675 470.334 370.331 439.646C363.871 427.533 358.218 412.189 358.218 406.536C358.218 400.883 352.565 392 346.104 386.347C324.3 367.772 331.568 354.044 364.678 354.044C417.171 354.044 430.899 346.776 422.824 324.971C417.171 310.435 417.978 307.204 426.862 310.435C438.975 315.28 471.278 270.056 470.47 249.059C470.47 242.599 464.817 250.674 457.549 266.826C443.821 300.744 438.168 303.974 422.824 285.4C417.171 278.939 409.902 275.709 405.865 278.132C401.827 280.555 398.596 278.939 398.596 274.902C398.596 270.056 392.136 268.441 384.06 270.864C369.524 274.094 350.142 245.829 350.142 220.794C350.142 206.258 325.107 192.529 298.457 192.529C273.423 192.529 265.347 181.223 281.498 168.302C289.574 161.841 305.726 160.226 331.568 164.264C377.6 170.725 394.559 178.8 425.246 207.873L447.858 228.87L440.59 208.681C436.552 197.375 419.593 181.223 401.019 171.532L368.716 154.573L406.672 136.807C435.745 123.078 448.666 110.964 459.164 86.737C467.24 68.9704 472.086 53.6265 469.663 51.2038C468.048 49.5886 461.587 60.0871 456.742 74.6234ZM196.703 135.191C196.703 148.113 182.167 152.958 158.747 147.305C138.558 141.652 138.558 140.844 152.287 135.191C174.899 126.308 196.703 126.308 196.703 135.191ZM156.325 167.494C156.325 171.532 151.479 176.378 146.634 178.8C140.981 181.223 121.599 189.299 103.832 196.567C70.7218 210.296 71.5293 207.065 111.1 177.993C135.328 159.419 156.325 154.573 156.325 167.494ZM204.779 211.103C204.779 214.334 199.126 228.87 191.858 241.791C180.552 264.403 180.552 270.056 193.473 304.782C203.971 333.854 215.277 348.391 240.312 364.542C279.076 388.769 314.609 424.303 308.148 431.571C301.688 438.031 216.085 378.271 218.508 369.388C220.123 365.35 213.662 362.119 204.779 362.119C195.896 362.119 188.627 357.274 188.627 350.813C188.627 344.353 185.397 337.892 180.552 336.277C167.631 332.239 155.517 281.362 166.823 281.362C172.476 281.362 171.668 278.132 164.4 273.286C153.902 266.826 154.709 262.788 167.631 240.176C179.744 219.179 180.552 213.526 171.668 207.873C163.593 203.028 166.823 201.412 182.974 202.22C195.088 203.028 204.779 207.065 204.779 211.103ZM124.022 219.179C124.022 220.794 108.678 236.138 90.9111 253.097C61.0309 282.17 58.6082 282.977 63.4536 265.211C71.5293 237.753 90.9111 216.756 109.485 216.756C117.561 216.756 124.022 217.564 124.022 219.179ZM268.577 225.64C245.158 234.523 233.044 274.094 248.388 289.438C252.426 293.476 253.233 297.514 249.195 297.514C245.158 297.514 250.003 303.167 259.694 310.435C269.385 316.895 275.845 326.586 273.423 330.624C271 334.662 273.423 336.277 279.076 333.854C291.189 330.624 328.338 373.425 328.338 391.192C328.338 397.653 331.568 402.498 334.798 402.498C344.489 402.498 350.95 442.877 343.681 455.798C338.836 464.681 333.991 459.836 325.915 435.609C320.262 417.842 310.571 401.691 304.11 398.46C296.842 396.038 293.612 389.577 296.035 383.924C298.457 376.656 293.612 373.425 282.306 373.425C270.192 374.233 266.154 370.195 267.77 360.504C269.385 350.813 266.154 347.583 258.079 350.813C222.546 364.542 190.243 310.435 203.971 258.75C213.662 224.832 222.546 219.179 265.347 218.371H289.574L268.577 225.64ZM318.647 241.791C327.53 245.829 338.028 259.558 342.874 270.864C349.334 287.015 354.18 290.245 370.331 286.208C382.445 282.977 390.521 284.592 390.521 289.438C390.521 294.283 393.751 296.706 397.789 294.283C408.287 287.823 417.171 330.624 407.48 340.315C394.559 353.236 320.262 331.432 306.533 309.627C299.265 299.129 286.344 282.977 276.653 274.094C244.35 244.214 277.46 219.179 318.647 241.791ZM107.87 274.902C107.87 280.555 98.9868 295.898 87.6808 309.627C62.646 340.315 59.4157 317.703 84.4505 286.208C103.025 262.788 107.87 260.365 107.87 274.902ZM104.64 351.621L92.5262 374.233L91.7187 353.236C91.7187 341.93 96.5641 328.201 101.41 323.356C116.753 308.012 118.369 325.779 104.64 351.621ZM140.173 384.731C140.173 390.384 136.943 392.807 132.097 390.384C128.059 387.962 124.022 377.463 124.022 367.772C124.022 353.236 125.637 352.429 132.097 362.119C136.135 368.58 140.173 379.078 140.173 384.731ZM168.438 394.422C170.861 398.46 169.246 402.498 165.208 402.498C160.362 402.498 156.325 398.46 156.325 394.422C156.325 389.577 157.94 386.347 159.555 386.347C161.978 386.347 166.015 389.577 168.438 394.422Z" />
<path d="M366.294 199.797C366.294 207.873 390.522 219.179 396.175 213.526C398.597 211.911 392.137 206.258 383.253 200.605C373.563 195.759 366.294 194.952 366.294 199.797Z" />
</svg>